${Ansi.BRIGHT_BLUE}      ______
${Ansi.BRIGHT_BLUE}     |__  (_)_ __  _ __   ___ _ __
${Ansi.BRIGHT_BLUE}       / /| | '_ \| '_ \ / _ \ '__|
${Ansi.BRIGHT_BLUE}      / /_| | |_) | |_) |  __/ |
${Ansi.BRIGHT_BLUE}     /____|_| .__/| .__/ \___|_|
${Ansi.BRIGHT_BLUE}============|_|===|_|================
${Ansi.BRIGHT_RED }:: Version 1.0b - Created by erickmob
